<svg viewbox="0 0 512 512" xmlns="http://www.w3.org/2000/svg" version="1.1">

 <g>
  <title>Layer 1</title>
  <g id="svg_1" fill="#ffb258">
   <path id="svg_2" d="m206.88499,292.48801c0,35.398 -26.262,64.09 -58.66,64.09c-32.395,0 -58.656,-28.691 -58.656,-64.09c0,-35.395 26.262,-64.09 58.656,-64.09c32.398,0 58.66,28.695 58.66,64.09"/>
   <path id="svg_3" d="m146.32499,360.60801c-96.812,0 -91.949,84.746 -91.949,84.746l0,17.191l183.89,0l0,-17.191c0.00781,-0.00391 4.875,-84.746 -91.945,-84.746l0.004,0zm69.082,38.621c-0.26172,0.19531 -0.55859,0.28516 -0.85547,0.28516c-0.4375,0 -0.86328,-0.19922 -1.1445,-0.57422c-9.4805,-12.703 -22.91,-21.5 -39.91,-26.156c-0.76172,-0.20703 -1.207,-0.99609 -1,-1.7578c0.20312,-0.76172 0.99609,-1.2031 1.7539,-1c17.625,4.832 31.57,13.984 41.441,27.203c0.47266,0.63281 0.34375,1.5273 -0.28516,2l0.00023,-0.00014zm11.758,25.219c-0.13281,0.04297 -0.26562,0.05859 -0.39844,0.05859c-0.62109,0 -1.1875,-0.40234 -1.3672,-1.0273c-1.8125,-6.2383 -4.2656,-12.086 -7.3086,-17.391c-0.39453,-0.6875 -0.15625,-1.5586 0.53125,-1.9492c0.6875,-0.38672 1.5586,-0.15625 1.9492,0.53125c3.1484,5.5 5.6953,11.559 7.5664,18.012c0.22266,0.75781 -0.21484,1.5469 -0.97266,1.7656l0.00005,0.00006z"/>
   <path id="svg_4" d="m430.04499,110.82801c0,31.094 -23.07,56.301 -51.531,56.301s-51.531,-25.207 -51.531,-56.301s23.07,-56.297 51.531,-56.297s51.531,25.203 51.531,56.297"/>
   <path id="svg_5" d="m376.85499,170.67801c-85.051,0 -80.777,74.445 -80.777,74.445l0,15.102l161.55,0l0,-15.102c0.00391,0 4.2734,-74.445 -80.773,-74.445zm60.684,33.926c-0.22656,0.17188 -0.49219,0.25 -0.75,0.25c-0.38281,0 -0.76172,-0.17578 -1.0039,-0.50391c-8.3359,-11.152 -20.129,-18.887 -35.059,-22.977c-0.66797,-0.18359 -1.0625,-0.87109 -0.88281,-1.543c0.18359,-0.66797 0.875,-1.0547 1.543,-0.875c15.48,4.2422 27.727,12.285 36.402,23.898c0.41797,0.55469 0.30859,1.3398 -0.25,1.75l0.00071,0.00091zm10.332,22.16c-0.11719,0.03125 -0.23047,0.05078 -0.35156,0.05078c-0.54297,0 -1.0469,-0.35547 -1.2031,-0.90625c-1.5859,-5.4727 -3.75,-10.617 -6.418,-15.277c-0.34766,-0.60156 -0.13672,-1.3672 0.46484,-1.7148c0.60156,-0.33984 1.3672,-0.13281 1.7148,0.46875c2.7656,4.832 5.0039,10.16 6.6445,15.828c0.19531,0.66016 -0.1875,1.3555 -0.85156,1.5508l0.00008,-0.00028z"/>
   <path id="svg_6" d="m131.38499,223.94801c-3.5508,0 -6.6211,-2.6602 -7.0469,-6.2812c-0.18359,-1.5664 -4.1445,-38.773 25.352,-75.949c29.867,-37.648 82.09,-60.949 155.21,-69.262c3.8945,-0.46094 7.418,2.3594 7.8633,6.2578c0.44531,3.8984 -2.3594,7.418 -6.2578,7.8633c-69.238,7.8711 -118.25,29.395 -145.69,63.977c-25.867,32.605 -22.406,65.141 -22.371,65.469c0.45312,3.8984 -2.3359,7.4258 -6.2266,7.8789c-0.28125,0.03125 -0.5625,0.04687 -0.83594,0.04687l0.00294,-0.00067z"/>
   <path id="svg_7" d="m286.77499,113.49801l-10.055,-10.043l23.137,-23.16l-22.809,-20.207l9.4219,-10.633l34.098,30.211l-33.7929,33.832z"/>
   <path id="svg_8" d="m268.83499,434.16801c-3.4375,0 -6.4609,-2.5 -7.0078,-6.0039c-0.60547,-3.875 2.043,-7.5078 5.918,-8.1172c71.16,-11.148 120.85,-35.523 147.69,-72.453c25.328,-34.848 20.324,-68.367 20.273,-68.703c-0.62109,-3.875 2.0156,-7.5156 5.8906,-8.1367c3.8711,-0.64062 7.5156,2.0156 8.1367,5.8906c0.25391,1.6055 5.9492,39.734 -22.809,79.297c-29.141,40.098 -81.957,66.387 -156.98,78.141c-0.375,0.05469 -0.74609,0.08594 -1.1094,0.08594l-0.0021,-0.00074z"/>
   <path id="svg_9" d="m290.15499,457.06801l-36.305,-29.527l33.219,-36.203l10.469,9.6055l-23.027,25.09l24.605,20.016l-8.961,11.0185z"/>
  </g>
 </g>
</svg>